# 1.0.0.9000

* New `revdep_pkgs()` function returns a tibble of revdep
  packages. You can filter revdeps with the `dependencies` and `bioc`
  arguments (which were originally arguments to `revdep_check()`).
  The tibble of reverse dependencies always includes `package` and
  `repo` column. The latter matches a repository (CRAN or
  Bioconductor) to each revdep.

  ```
  revdep_pkgs("rlang")
  #> # A tibble: 339 x 2
  #>    repo  package
  #>    <chr> <chr>
  #>  1 CRAN  AMR
  #>  2 CRAN  amt
  #> # … with 337 more rows
  ```
…
